Isaac_Ullah – Agustín A. Diez Castillo
…
iu_pubs <- iu_publications %>%
  as_tibble()
iu_pubs

# A tibble: 226 × 8
   title                           author journal number cites  year cid   pubid
   <chr>                           <chr>  <chr>   <chr>  <dbl> <dbl> <chr> <chr>
 1 "Archaeological assessment rev… L Ste… "Scien… "365 …   603  2019 5441… idth…
 2 "The genomic history of the Ib… I Ola… "Scien… "363 …   578  2019 1627… vnF2…
 3 "Mas d’Is (Penàguila, Alicante… JB Au… "Traba… "60 (…   260  2003 1182… u5HH…
 4 "Inequalities and power. Three… JB Au… "Socia… "97-1…   121  2006 2388… u-x6…
 5 "El yacimiento de Colata (Mont… M Góm… "Recer… "13, …    85  2004 1227… 6ZzL…
 6 "El poblamiento neolítico: des… JB Au… "La Sa… "171-…    67  2002 2411… NMxI…
 7 "Cocina cave revisited: Bayesi… O Gar… "Quate… "472,…    47  2018 1623… NxmK…
 8 "Postglacial Coast & Inland: T… A Die… ""      ""        40  2004 1551… s9ia…
 9 "Utilización de los recursos e… A Die… ""      ""        36  1997 6108… d1gk…
10 "New insights into the neolith… O Gar… "Archa… "2017"    35  2017 1752… mel-…
# ℹ 216 more rows
…
##Get Author Google Citation History You can retrieve author citations by year.

iu_history <- get_citation_history(iu_id) 

You can determine the number of citations per year, which is useful for understanding the impact of an author’s work over time.

iu_history <- iu_history %>%
  as_tibble() %>%
  mutate(cumal_cites = cumsum(cites))
iu_history

# A tibble: 23 × 3
    year cites cumal_cites
   <dbl> <dbl>       <dbl>
 1  2003    11          11
 2  2004    17          28
 3  2005    24          52
 4  2006    13          65
 5  2007    15          80
 6  2008    42         122
 7  2009    44         166
 8  2010    49         215
 9  2011   147         362
10  2012    39         401
# ℹ 13 more rows
…
pubids <- pull(iu_pubs, pubid)[1:10]
iu_ach <- get_article_cite_history(iu_id, pubids[1])
for(i in 2:10){
ach <- get_article_cite_history(iu_id, pubids[i])
iu_ach <- bind_rows(iu_ach, ach)
}

The result links the article via the pubid. However, you could devise ways to join this to data such as journal-year, etc.

iu_ach <- iu_ach %>%
  as_tibble()
iu_ach

# A tibble: 164 × 3
    year cites pubid       
   <int> <dbl> <chr>       
 1  2019    10 idthP5jqfYAC
 2  2020    76 idthP5jqfYAC
 3  2021   115 idthP5jqfYAC
 4  2022   107 idthP5jqfYAC
 5  2023   127 idthP5jqfYAC
 6  2024   107 idthP5jqfYAC
 7  2025    49 idthP5jqfYAC
 8  2019    38 vnF2_uLGgtgC
 9  2020    88 vnF2_uLGgtgC
10  2021    94 vnF2_uLGgtgC
# ℹ 154 more rows
…
